Cleaning up after the federal election
…
## Assess the current state

---

## 2015 Election Results

[42nd General Election: Official Voting Results (Voting Results by Electoral District)](https://open.canada.ca/data/en/dataset/775f3136-1aa3-4854-a51e-1a2dab362525)

```r
ridings_results_2015_raw
```

```
## # A tibble: 338 x 13
##    Province `Electoral Dist… `Electoral Dist… Population `Electors/Élect…
##    <chr>    <chr>                       <dbl>      <dbl>            <dbl>
##  1 Newfoun… Avalon                      10001      81540            68487
##  2 Newfoun… Bonavista--Buri…            10002      76704            62462
##  3 Newfoun… Coast of Bays--…            10003      78092            64226
##  4 Newfoun… Labrador                    10004      26728            20045
##  5 Newfoun… Long Range Moun…            10005      87592            71918
##  6 Newfoun… St. John's East…            10006      81936            66304
##  7 Newfoun… St. John's Sout…            10007      81944            67596
##  8 Prince … Cardigan                    11001      36005            28889
##  9 Prince … Charlottetown               11002      34562            28129
## 10 Prince … Egmont                      11003      34598            27858
## # … with 328 more rows, and 8 more variables: `Polling Stations/Bureaux de
## #   scrutin` <dbl>, `Valid Ballots/Bulletins valides` <dbl>, `Percentage
## #   of Valid Ballots /Pourcentage des bulletins valides` <dbl>, `Rejected
## #   Ballots/Bulletins rejetés` <dbl>, `Percentage of Rejected Ballots
## #   /Pourcentage des bulletins rejetés` <dbl>, `Total Ballots Cast/Total
## #   des bulletins déposés` <dbl>, `Percentage of Voter Turnout/Pourcentage
## #   de la participation électorale` <dbl>, `Elected Candidate/Candidat
## #   élu` <chr>
```
…
Riding name contains English and French. Elected party is contained within elected candidate field.

---

## 2019 Election Results

[October 21, 2019 Federal Election Election Results](https://enr.elections.ca/National.aspx?lang=e)

```r
ridings_results_2019_raw
```

```
## # A tibble: 338 x 14
##    `Province/terri… `Electoral dist… `Candidate who … `Political affi…
##    <chr>            <chr>            <chr>            <chr>           
##  1 Newfoundland an… Avalon           Kenneth McDonald Liberal         
##  2 Newfoundland an… Bonavista--Buri… Churence Rogers  Liberal         
##  3 Newfoundland an… Coast of Bays--… Scott Simms      Liberal         
##  4 Newfoundland an… Labrador         Yvonne Jones     Liberal         
##  5 Newfoundland an… Long Range Moun… Gudie Hutchings  Liberal         
##  6 Newfoundland an… St. John's East  Jack Harris      NDP             
##  7 Newfoundland an… St. John's Sout… Seamus O'Regan   Liberal         
##  8 Prince Edward I… Cardigan         Lawrence MacAul… Liberal         
##  9 Prince Edward I… Charlottetown    Sean Casey       Liberal         
## 10 Prince Edward I… Egmont           Bobby Morrissey  Liberal         
## # … with 328 more rows, and 10 more variables: `Number of votes
## #   cast` <dbl>, `Candidate who received the second-most votes` <chr>,
## #   `Political affiliation_1` <chr>, `Number of votes cast_1` <dbl>,
## #   `Total number of valid votes cast in the electoral district` <dbl>,
## #   `Variance between first and second place (number of votes)` <dbl>,
## #   `Variance (percentage)` <chr>, `Status of results (preliminary or
## #   validated)` <chr>, `Judicial recount requested or automatic` <chr>,
## #   X14 <lgl>
```
…
## 2019 Election Results

```r
ridings_results_2019 <- ridings_results_2019_raw %>%
  select(
    `Electoral district`,
    `Political affiliation`
  )

ridings_results_2019
```

```
## # A tibble: 338 x 2
##    `Electoral district`               `Political affiliation`
##    <chr>                              <chr>                  
##  1 Avalon                             Liberal                
##  2 Bonavista--Burin--Trinity          Liberal                
##  3 Coast of Bays--Central--Notre Dame Liberal                
##  4 Labrador                           Liberal                
##  5 Long Range Mountains               Liberal                
##  6 St. John's East                    NDP                    
##  7 St. John's South--Mount Pearl      Liberal                
##  8 Cardigan                           Liberal                
##  9 Charlottetown                      Liberal                
## 10 Egmont                             Liberal                
## # … with 328 more rows
```
…
--

```r
ridings_results_2019 %>%
  select(`Electoral district`)
```

--

```
## # A tibble: 338 x 1
##    `Electoral district`              
##    <chr>                             
##  1 Avalon                            
##  2 Bonavista--Burin--Trinity         
##  3 Coast of Bays--Central--Notre Dame
##  4 Labrador                          
##  5 Long Range Mountains              
##  6 St. John's East                   
##  7 St. John's South--Mount Pearl     
##  8 Cardigan                          
##  9 Charlottetown                     
## 10 Egmont                            
## # … with 328 more rows
```
…
```r
library(tidyr)

ridings_results_2015 <- ridings_results_2015 %>%
  separate(electoral_district_name_nom_de_circonscription,
    into = "riding",
    sep = "/")

ridings_results_2015
```

--

```
## # A tibble: 338 x 2
##    riding                             elected_candidate_candidat_elu    
##    <chr>                              <chr>                             
##  1 Avalon                             McDonald, Ken Liberal/Libéral     
##  2 Bonavista--Burin--Trinity          Foote, Judy M. Liberal/Libéral    
##  3 Coast of Bays--Central--Notre Dame Simms, Scott Liberal/Libéral      
##  4 Labrador                           Jones, Yvonne Liberal/Libéral     
##  5 Long Range Mountains               Hutchings, Gudie Liberal/Libéral  
##  6 St. John's East                    Whalen, Nick Liberal/Libéral      
##  7 St. John's South--Mount Pearl      O'Regan, Seamus Liberal/Libéral   
##  8 Cardigan                           MacAulay, Lawrence Liberal/Libéral
##  9 Charlottetown                      Casey, Sean Liberal/Libéral       
## 10 Egmont                             Morrissey, Bobby Liberal/Libéral  
## # … with 328 more rows
```
…
--

✅ Ensure the ridings names from the two data sets match

---

## Get the elected party out of the elected official

```r
ridings_results_2015 %>%
  select(elected_candidate_candidat_elu)
```

```
## # A tibble: 338 x 1
##    elected_candidate_candidat_elu                                          
##    <chr>                                                                   
##  1 Fast, Ed Conservative/Conservateur                                      
##  2 Saganash, Romeo NDP-New Democratic Party/NPD-Nouveau Parti démocratique 
##  3 Moore, Christine NDP-New Democratic Party/NPD-Nouveau Parti démocratique
##  4 Cormier, Serge Liberal/Libéral                                          
##  5 Joly, Mélanie Liberal/Libéral                                           
##  6 Holland, Mark Liberal/Libéral                                           
##  7 Iacono, Angelo Liberal/Libéral                                          
##  8 Hughes, Carol NDP-New Democratic Party/NPD-Nouveau Parti démocratique   
##  9 Lauzon, Stéphane Liberal/Libéral                                        
## 10 Alleslev, Leona Liberal/Libéral                                         
## # … with 328 more rows
```
…
---

## How many ridings elected a different party in 2019 than they did in 2015?

```r
different_parties <- riding_results %>%
  filter(party_2015 != party_2019)

different_parties
```

--

```
## # A tibble: 62 x 3
##    riding                                        party_2015   party_2019   
##    <chr>                                         <chr>        <chr>        
##  1 Abitibi-Baie-James-Nunavik-Eeyou              NDP          Bloc Québéco…
##  2 Abitibi-Témiscamingue                         NDP          Bloc Québéco…
##  3 Aurora-Oak Ridges-Richmond Hill               Liberal      Conservative 
##  4 Avignon-La Mitis-Matane-Matapédia             Liberal      Bloc Québéco…
##  5 Beauport-Côte-de-Beaupré-Île d'Orléans-Charl… Conservative Bloc Québéco…
##  6 Beauport-Limoilou                             Conservative Bloc Québéco…
##  7 Beloeil-Chambly                               NDP          Bloc Québéco…
##  8 Berthier-Maskinongé                           NDP          Bloc Québéco…
##  9 Calgary Centre                                Liberal      Conservative 
## 10 Calgary Skyview                               Liberal      Conservative 
## # … with 52 more rows
```
…
## How many ridings elected a different party in 2019 than they did in 2015?

```r
library(glue)

different_parties <- different_parties %>%
  mutate(party_change = glue("{party_2015} to {party_2019}"))

different_parties["party_change"]
```

--

```
## # A tibble: 62 x 1
##    party_change                  
##    <glue>                        
##  1 NDP to Bloc Québécois         
##  2 NDP to Bloc Québécois         
##  3 Liberal to Conservative       
##  4 Liberal to Bloc Québécois     
##  5 Conservative to Bloc Québécois
##  6 Conservative to Bloc Québécois
##  7 NDP to Bloc Québécois         
##  8 NDP to Bloc Québécois         
##  9 Liberal to Conservative       
## 10 Liberal to Conservative       
## # … with 52 more rows
```
…
