Practical data cleaning
…
# What does my data look like now?

## (Assess the current state)

---

## 2015 Election Results

```r
ridings_results_2015
```

```
## # A tibble: 338 x 13
##    Province `Electoral Dist… `Electoral Dist… Population `Electors/Élect…
##    <chr>    <chr>                       <dbl>      <dbl>            <dbl>
##  1 Newfoun… Avalon                      10001      81540            68487
##  2 Newfoun… Bonavista--Buri…            10002      76704            62462
##  3 Newfoun… Coast of Bays--…            10003      78092            64226
##  4 Newfoun… Labrador                    10004      26728            20045
##  5 Newfoun… Long Range Moun…            10005      87592            71918
##  6 Newfoun… St. John's East…            10006      81936            66304
##  7 Newfoun… St. John's Sout…            10007      81944            67596
##  8 Prince … Cardigan                    11001      36005            28889
##  9 Prince … Charlottetown               11002      34562            28129
## 10 Prince … Egmont                      11003      34598            27858
## # … with 328 more rows, and 8 more variables: `Polling Stations/Bureaux de
## #   scrutin` <dbl>, `Valid Ballots/Bulletins valides` <dbl>, `Percentage
## #   of Valid Ballots /Pourcentage des bulletins valides` <dbl>, `Rejected
## #   Ballots/Bulletins rejetés` <dbl>, `Percentage of Rejected Ballots
## #   /Pourcentage des bulletins rejetés` <dbl>, `Total Ballots Cast/Total
## #   des bulletins déposés` <dbl>, `Percentage of Voter Turnout/Pourcentage
## #   de la participation électorale` <dbl>, `Elected Candidate/Candidat
## #   élu` <chr>
```
…
Riding name contains English and French. Elected party is contained within elected candidate field.

---

## 2019 Election Results

```r
ridings_results_2019
```

```
## # A tibble: 2,149 x 14
##    `Electoral dist… `Electoral dist… `Nom de la circ… `Type of result…
##    <chr>            <chr>            <chr>            <chr>           
##  1 10001            Avalon           Avalon           preliminary     
##  2 10001            Avalon           Avalon           preliminary     
##  3 10001            Avalon           Avalon           preliminary     
##  4 10001            Avalon           Avalon           preliminary     
##  5 10002            Bonavista--Buri… Bonavista--Buri… preliminary     
##  6 10002            Bonavista--Buri… Bonavista--Buri… preliminary     
##  7 10002            Bonavista--Buri… Bonavista--Buri… preliminary     
##  8 10002            Bonavista--Buri… Bonavista--Buri… preliminary     
##  9 10003            Coast of Bays--… Coast of Bays--… preliminary     
## 10 10003            Coast of Bays--… Coast of Bays--… preliminary     
## # … with 2,139 more rows, and 10 more variables: `Type de
## #   résultats**` <chr>, `Surname - Nom de famille` <chr>, `Middle name(s)
## #   - Autre(s) prénom(s)` <lgl>, `Given name - Prénom` <chr>, `Political
## #   affiliation` <chr>, `Appartenance politique` <chr>, `Votes obtained -
## #   Votes obtenus` <dbl>, `% Votes obtained - Votes obtenus %` <dbl>,
## #   `Rejected ballots - Bulletins rejetés***` <dbl>, `Total number of
## #   ballots cast - Nombre total de votes déposés` <dbl>
```
…
---

## Get the 2015 elected party out of the elected candidate

```r
ridings_results_2015 %>%
  select(elected_candidate_candidat_elu)
```

```
## # A tibble: 338 x 1
##    elected_candidate_candidat_elu    
##    <chr>                             
##  1 McDonald, Ken Liberal/Libéral     
##  2 Foote, Judy M. Liberal/Libéral    
##  3 Simms, Scott Liberal/Libéral      
##  4 Jones, Yvonne Liberal/Libéral     
##  5 Hutchings, Gudie Liberal/Libéral  
##  6 Whalen, Nick Liberal/Libéral      
##  7 O'Regan, Seamus Liberal/Libéral   
##  8 MacAulay, Lawrence Liberal/Libéral
##  9 Casey, Sean Liberal/Libéral       
## 10 Morrissey, Bobby Liberal/Libéral  
## # … with 328 more rows
```
…
✅ Extract the elected party from the 2015 elected official

---

## Get the winning party for each 2019 riding

```r
ridings_results_2019
```

```
## # A tibble: 2,149 x 4
##    electoral_distric… surname_nom_de_f… political_affil… percent_votes_obt…
##    <chr>              <chr>             <chr>                         <dbl>
##  1 Avalon             Chapman           Conservative                   31  
##  2 Avalon             Malone            Green Party                     5.4
##  3 Avalon             McDonald          Liberal                        46.1
##  4 Avalon             Movelle           NDP-New Democra…               17.6
##  5 Bonavista--Burin-… Cooper            NDP-New Democra…               12  
##  6 Bonavista--Burin-… Reichel           Green Party                     2.9
##  7 Bonavista--Burin-… Rogers            Liberal                        45.7
##  8 Bonavista--Burin-… Vokey             Conservative                   39.5
##  9 Coast of Bays--Ce… Bracci            Conservative                   35.5
## 10 Coast of Bays--Ce… Joe               NDP-New Democra…               12.3
## # … with 2,139 more rows
```
…
## Get the winning party for each 2019 riding

```r
ridings_results_2019 <- ridings_results_2019 %>%
  group_by(riding_name = electoral_district_name) %>%
  filter(percent_votes_obtained_votes_obtenus_percent == max(percent_votes_obtained_votes_obtenus_percent)) %>%
  ungroup() %>%
  select(riding_name, elected_party = political_affiliation)

ridings_results_2019
```

```
## # A tibble: 338 x 2
##    riding_name                        elected_party           
##    <chr>                              <chr>                   
##  1 Avalon                             Liberal                 
##  2 Bonavista--Burin--Trinity          Liberal                 
##  3 Coast of Bays--Central--Notre Dame Liberal                 
##  4 Labrador                           Liberal                 
##  5 Long Range Mountains               Liberal                 
##  6 St. John's East                    NDP-New Democratic Party
##  7 St. John's South--Mount Pearl      Liberal                 
##  8 Cardigan                           Liberal                 
##  9 Charlottetown                      Liberal                 
## 10 Egmont                             Liberal                 
## # … with 328 more rows
```
…
## Get the English riding name out of the 2015 data

```r
ridings_results_2015 <- ridings_results_2015 %>%
  separate(electoral_district_name_nom_de_circonscription,
    into = c("riding_name"),
    sep = "/"
  )

ridings_results_2015
```

```
## # A tibble: 338 x 2
##    riding_name                        elected_party
##    <chr>                              <chr>        
##  1 Avalon                             Liberal      
##  2 Bonavista--Burin--Trinity          Liberal      
##  3 Coast of Bays--Central--Notre Dame Liberal      
##  4 Labrador                           Liberal      
##  5 Long Range Mountains               Liberal      
##  6 St. John's East                    Liberal      
##  7 St. John's South--Mount Pearl      Liberal      
##  8 Cardigan                           Liberal      
##  9 Charlottetown                      Liberal      
## 10 Egmont                             Liberal      
## # … with 328 more rows
```
…
# Ensure the riding names match

```r
riding_results <- ridings_results_2015 %>%
  full_join(ridings_results_2019,
    by = "riding_name",
    suffix = c("_2015", "_2019")
  )

riding_results
```

```
## # A tibble: 340 x 3
##    riding_name                    elected_party_2015 elected_party_2019    
##    <chr>                          <chr>              <chr>                 
##  1 Avalon                         Liberal            Liberal               
##  2 Bonavista--Burin--Trinity      Liberal            Liberal               
##  3 Coast of Bays--Central--Notre… Liberal            Liberal               
##  4 Labrador                       Liberal            Liberal               
##  5 Long Range Mountains           Liberal            Liberal               
##  6 St. John's East                Liberal            NDP-New Democratic Pa…
##  7 St. John's South--Mount Pearl  Liberal            Liberal               
##  8 Cardigan                       Liberal            Liberal               
##  9 Charlottetown                  Liberal            Liberal               
## 10 Egmont                         Liberal            Liberal               
## # … with 330 more rows
```
…
## Combine the 2015 and 2019 results

```r
riding_results <- ridings_results_2015 %>%
  full_join(ridings_results_2019,
    by = "riding_name",
    suffix = c("_2015", "_2019")
  )

riding_results
```

```
## # A tibble: 338 x 3
##    riding_name                 elected_party_2015     elected_party_2019   
##    <chr>                       <chr>                  <chr>                
##  1 Abbotsford                  Conservative           Conservative         
##  2 Abitibi-Baie-James-Nunavik… NDP-New Democratic Pa… Bloc Québécois       
##  3 Abitibi-Témiscamingue       NDP-New Democratic Pa… Bloc Québécois       
##  4 Acadie-Bathurst             Liberal                Liberal              
##  5 Ahuntsic-Cartierville       Liberal                Liberal              
##  6 Ajax                        Liberal                Liberal              
##  7 Alfred-Pellan               Liberal                Liberal              
##  8 Algoma-Manitoulin-Kapuskas… NDP-New Democratic Pa… NDP-New Democratic P…
##  9 Argenteuil-La Petite-Nation Liberal                Liberal              
## 10 Aurora-Oak Ridges-Richmond… Liberal                Conservative         
## # … with 328 more rows
```
…
✅ Ensure the ridings names from the two data sets match

✅  Combine the two data sets

---

# How many ridings elected a different party in 2019 than they did in 2015?

```r
riding_results %>%
  filter(elected_party_2015 != elected_party_2019)
```

```
## # A tibble: 62 x 3
##    riding_name                       elected_party_2015   elected_party_20…
##    <chr>                             <chr>                <chr>            
##  1 Abitibi-Baie-James-Nunavik-Eeyou  NDP-New Democratic … Bloc Québécois   
##  2 Abitibi-Témiscamingue             NDP-New Democratic … Bloc Québécois   
##  3 Aurora-Oak Ridges-Richmond Hill   Liberal              Conservative     
##  4 Avignon-La Mitis-Matane-Matapédia Liberal              Bloc Québécois   
##  5 Beauport-Côte-de-Beaupré-Île d'O… Conservative         Bloc Québécois   
##  6 Beauport-Limoilou                 Conservative         Bloc Québécois   
##  7 Beloeil-Chambly                   NDP-New Democratic … Bloc Québécois   
##  8 Berthier-Maskinongé               NDP-New Democratic … Bloc Québécois   
##  9 Calgary Centre                    Liberal              Conservative     
## 10 Calgary Skyview                   Liberal              Conservative     
## # … with 52 more rows
```
…
