Opinionated Strategies for Uncharted Territories
…
`in_set()`: checks that each value is within a set.

--

`within_bounds()`: checks that each numeric value is within the bounds

```r
delays %>%
  assert(within_bounds(0, Inf), min_delay)
```

--

```
## # A tibble: 20,735 x 8
##    date       time  station               code 
##    <date>     <chr> <chr>                 <chr>
##  1 2018-04-01 00:27 ST GEORGE BD STATION  MUSAN
##  2 2018-04-01 07:56 FINCH STATION         TUSC 
##  3 2018-04-01 08:00 YONGE UNIVERSITY LINE MUO  
##  4 2018-04-01 09:50 KIPLING STATION       TUSC 
##  5 2018-04-01 10:18 VICTORIA PARK STATION MUSC 
##  6 2018-04-01 10:22 KENNEDY BD STATION    EUNT 
##  7 2018-04-01 10:30 WILSON STATION        PUMEL
##  8 2018-04-01 11:20 WILSON STATION        TUSC 
##  9 2018-04-01 11:32 FINCH WEST STATION    MUIRS
## 10 2018-04-01 12:00 JANE STATION          TUSC 
##    description                                                min_delay
##    <chr>                                                          <dbl>
##  1 Unsanitary Vehicle                                                 8
##  2 Operator Overspeeding                                              0
##  3 Miscellaneous Other                                                0
##  4 Operator Overspeeding                                              0
##  5 Miscellaneous Speed Control                                        0
##  6 Equipment - No Trouble Found                                       3
##  7 Escalator/Elevator Incident                                        0
##  8 Operator Overspeeding                                              0
##  9 Injured or ill Customer (In Station) - Medical Aid Refused         0
## 10 Operator Overspeeding                                              0
##    bound line 
##    <chr> <chr>
##  1 W     BD   
##  2 S     YU   
##  3 <NA>  YU   
##  4 W     BD   
##  5 W     BD   
##  6 W     BD   
##  7 <NA>  YU   
##  8 S     YU   
##  9 <NA>  YU   
## 10 W     BD   
## # … with 20,725 more rows
```
…
